{
	"dictionnaire": [
			{
				"key": "parameters",
				"value": "Paramètres"
			},
			{
				"key": "quit",
				"value": "Quitter"
			},
			{
				"key": "continue",
				"value": "Continuer"
			},
			{
				"key": "newGame",
				"value": "Nouvelle partie"
			},
			{
				"key": "back",
				"value": "Retour"
			},
			{
				"key": "volume",
				"value": "Volume"
			},
			{
				"key": "nextButtonText",
				"value": "Suivant"
			},
			{
				"key": "LookAtObjects",
				"value": "Joue la note associée à la couleur de l'objet"
			},
			{
				"key": "SearchObjects",
				"value": "Va chercher ces objets pour trouver la bonne mélodie."	
			},
			{
				"key": "GoalToEndLevel",
				"value": "Pour demander au poisson d’exaucer un vœu, une nouvelle berceuse doit être jouée. Pour trouver sa mélodie, trouve les bons objets."
			},
			{
				"key": "FoundObjects",
				"value": "Braco, tu as trouvé les objets dont tu avais besoin pour jouer la mélodie. Pars à leur recherche."
			},
			{
				"key": "EndLevel",
				"value": "Retourne à la rivière et joue la mélodie pour appeler le poisson!"
			},
			{
				"key": "c0_0_narrator",
				"value":" Il était une fois, un vieux pêcheur et sa femme habitaient dans une petite cabane au milieu de la  forêt. Le vieil homme se réveillait dès l’aurore et se rendait à la rivière pour pêcher. Il y restait toute la journée, mais n’attrapait jamais rien."
			},
			{
				"key": "c0_1_narrator",
				"value": "Un jour, après avoir fredonné une chanson, le vieil homme sentit un poids sur sa ligne. Il avait enfin attrapé un poisson ! Il le tira lentement vers lui, s’attendant à un large spécimen, mais trouva seulement un petit poisson doré."
			},
			{
				"key": "c0_2_fish",
				"value": "Vieil homme, ne me tue pas ! Je t’en supplie, remets-moi à l’eau !"
			},
			{
				"key": "c0_3_fisher",
				"value": "Comment ? Un poisson qui parle ?"
			},
			{
				"key": "c0_4_fish",
				"value": "Oui, et mon coeur ressent la douleur comme le tien. Relâche-moi s’il-te-plaît, et je t’accorderai n’importe quel vœu."
			},
			{
				"key": "c0_5_fisher",
				"value": "… Je pense avoir tout ce dont j’ai besoin. Je vais te remettre à l’eau."
			},
			{
				"key": "c0_6_fish",
				"value": "Vieil homme, tu m’as laissé vivre. Si tu as besoin de moi, joue-moi une berceuse avec cette flûte de pan."
			},
			{
				"key": "L0_0",
				"value": "Félicitations ! Vous avez désormais une flûte de pan magique et pourrez jouer une berceuse pour le poisson."
			},
			{
				"key": "L0_1",
				"value": "Chaque note peut être jouée en appuyant sur les touches suivantes : ‘Y’, ‘U’, ‘I’, ‘O’, ‘P’"
			},
			{
				"key": "L0_2",
				"value": "Pour appeler le poisson, une mélodie précise doit être jouée. Pour trouver la mélodie, une énigme doit être résolue."
			},
			{
				"key": "L0_3",
				"value": "Dans chaque niveau, certains objets doivent être trouvés pour composer une mélodie."
			},
			{
				"key": "L0_5",
				"value": "Après avoir trouvé ces deux objets, revenez ici pour jouer une berceuse pour le poisson."
			},
			{
				"key": "L0_6",
				"value": "Pour se déplacer, utilisez les touches ‘Z’ ↑, ‘Q’ ←, ‘S’ ↓, ‘D’ et la souris pour contrôler l’angle de la caméra."
			},
			{
				"key": "L0_playNotes",
				"value": "Émerveillé par ce qu’il venait d’accomplir, le vieux pêcheur décida de rentrer chez lui et partager cette découverte avec sa femme."
			},
			{
				"key": "c1_0_wife",
				"value": "Pourquoi es-tu déjà de retour ? Tu n’as pas attrapé de poisson ce matin ?"
			},
			{
				"key": "c1_1_fisher",
				"value": "Oui et non. J’ai attrapé un poisson d’or qui peut exaucer des vœux."
			},
			{
				"key": "c1_2_wife",
				"value": "Et ? Quels étaient tes vœux ?"
			},
			{
				"key": "c1_3_fisher",
				"value": "Je n’en ai pas fait. Je n’ai pas pu penser à quoi que ce soit."
			},
			{
				"key": "c1_4_wife",
				"value": "Vieil idiot ! Tu n’as pas pensé à demander une maison ?"
			},
			{
				"key": "c1_5_fisher",
				"value": "Nous avons déjà une maison."
			},
			{
				"key": "c1_6_wife",
				"value": "Non, nous avons une vieille cabane. Retrouve ton poisson et demande-lui une maison."
			},
			{
				"key": "c1_7_narrator",
				"value": "Attristé par la déception de sa femme, le vieux pêcheur ressortit pour accomplir sa nouvelle mission."
			},
			{
				"key": "L1_0",
				"value": "To ask the fish to grant a wish, a new lullaby has to be played. To find its melody, find the right objects."
			},
			{
				"key": "L1_1",
				"value": "This time, finding the needed objects will take some initiative. If one were to walk around, and observe their surroundings, who knows what they might stumble onto?"

			},
			{
				"key": "L1_2_fish",
				"value": "Bonjour vieil homme, comment puis-je t’aider ?"

			},
			{
				"key": "L1_3_fisher",
				"value": "Bonjour poisson. Ne rien te demander était une erreur, ma femme souhaite une nouvelle maison. Nous habitons dans une petite cabane qui nous protège à peine du vent glacial."

			},
			{
				"key": "L1_3_fish",
				"value": "Rentre chez toi, tu trouveras ce que tu m’as demandé."
			},
			{
				"key": "C2_0_narrator",
				"value": "La vieille cabane fut remplacée par une jolie maison de briques jaunes au toit de chaume. Le pêcheur éprouva un pincement au cœur après avoir échangé sa chère cabane mais il dut reconnaître que cette maison serait plus confortable."
			},
			{
				"key": "C2_1_fischer",
				"value": "Qu’en penses-tu ? Notre foyer s’est embelli, n’est-ce pas ?"
			},
			{
				"key": "C2_2_narrator",
				"value": "Tournant en rond, Sa femme ne semblait pas satisfaite."
			},
			{
				"key": "C2_3_wife",
				"value": "Cette maison est minuscule, pourquoi tu n’en as-tu pas demandée une plus grande ? Je n’en peux plus d’être la femme d’un paysan, je suis faite pour quelque chose de plus grand. Je veux être une comtesse, et habiter dans un palais de comtesse. Retourne voir ton poisson et demande-lui un palais."
			},
			{
				"key": "C2_4_narrator",
				"value": "Le vieil homme était surpris par la réaction de sa femme. Il repartit malgré tout chercher le poisson."
			},
			{
				"key": "L2_0_narrator",
				"value": "The old man was surprised by his wife’s reaction. Yet, he went out again to look for the fish."
			},
			{
				"key": "L2_1_fish",
				"value": "Bonjour vieil homme, comment puis-je t’aider ?"
			},
			{
				"key": "L2_2_fisher",
				"value": "Bonjour poisson. J’ai commis une erreur en te demandant une maison, ma femme désire être comtesse et veut un grand palais."
			},
			{
				"key": "L2_3_fish",
				"value": "Rentre chez toi, tu trouveras ce que tu as demandé."
			},
			{
				"key": "C3_0_narrator",
				"value": "La petite maison devint un grand palais, si grand qu’on pouvait le voir au-dessus des arbres. Le vieil homme se perdit en cherchant sa femme dans la salle à manger. Il la trouva près d’une fenêtre, regardant la rivière."
			},
			{
				"key": "C3_1_wife",
				"value": "Je veux les pleins pouvoirs de ton nouvel ami. Retourne le voir et demande-lui de faire de moi la femme la plus puissante de tous les temps."
			},
			{
				"key": "C3_2_fisher",
				"value": "Es-tu sûre? Nous avons déjà plus que ce que nous aurions pu imaginer. N’es-tu pas encore satisfaite?"
			},
			{
				"key": "C3_3_wife",
				"value": "Non ! Je veux plus ! J’ai besoin d’encore plus ! Ne comprends-tu pas que j’aspire à bien plus que la misérable vie que tu m’as donnée ? La seule chose que tu aies faite de bien était de me parler de ce poisson magique, et tu tentes maintenant de me l’enlever ! Tu feras donc ce que je te dis et tu me rendras aussi puissante que ce poisson !"
			},
			{
				"key": "L3_0_fish",
				"value": "Bonjour vieil homme, comment puis-je t’aider ?"
			},
			{
				"key": "L3_1_man",
				"value": "Bonjour poisson. Ma femme n’est toujours pas satisfaite, elle veut désormais avoir tous tes pouvoirs. Que devrais-je faire ?"
			},
			{
				"key": "L3_2_fish",
				"value": "Mon cher ami, rentre chez toi, tu verras."
			},
			{
				"key": "c4_0_narrator",
				"value": "La femme du vieil homme aurait dû faire plus attention à ce qu'elle a demandé"
			}
	]
}