%YAML 1.1
%TAG !u! tag:unity3d.com,2011:
--- !u!1045 &1
EditorBuildSettings:
  m_ObjectHideFlags: 0
  serializedVersion: 2
  m_Scenes:
  - enabled: 1
    path: Assets/Scenes/Root.unity
    guid: 897b4abd2468b124495cec2dda64c357
  - enabled: 1
    path: Assets/Scenes/Menus/MainMenu.unity
    guid: 62b580b19e22a7e43b2583ad19ee3f53
  - enabled: 1
    path: Assets/Scenes/Menus/Credits.unity
    guid: 7b1678d089933ed48b24396d14929535
  - enabled: 1
    path: Assets/Scenes/Menus/ConfigMenu.unity
    guid: 1dc1184d338ef7448aa7aa91755b96fb
  - enabled: 1
    path: Assets/Scenes/Menus/PauseMenu.unity
    guid: 599584c32e5639643acc80ef26790a0e
  - enabled: 1
    path: Assets/Scenes/Zones/Common.unity
    guid: a1cc1f79ba9685941b3884c4ecf1326e
  - enabled: 1
    path: Assets/Scenes/Zones/Hub.unity
    guid: 4bb5bc21d55c0fd4c8358686709eec84
  - enabled: 1
    path: Assets/Scenes/Zones/Zone1.unity
    guid: eedaf7658b5e9074aadb76f5e6363784
  - enabled: 1
    path: Assets/Scenes/Zones/Zone2.unity
    guid: ead8a9ce5bc4b954b9c0c41b98bdf681
  - enabled: 1
    path: Assets/Scenes/Zones/Zone3.unity
    guid: 4a11f0896701bef489bef2b4cf6a7ad0
  - enabled: 1
    path: Assets/Scenes/Zones/Background.unity
    guid: e3dee031d7b46a141b9ba68791c92fac
  - enabled: 1
    path: Assets/Scenes/Cutscenes/IntroCutscene.unity
    guid: 5fd00bce4fc348043967bb1b873d780c
  - enabled: 1
    path: Assets/Scenes/Cutscenes/HutCutscene.unity
    guid: 8f36d58cb337fdf40a8caf784366837a
  - enabled: 1
    path: Assets/Scenes/Cutscenes/HouseCutscene.unity
    guid: 2ba33a3acbe7f854d9581c97f13bf439
  - enabled: 1
    path: Assets/Scenes/Cutscenes/CastleCutscene.unity
    guid: 5d4dfb2d5cdbce243a96c7198d32964b
  - enabled: 1
    path: Assets/Scenes/Cutscenes/FinalCutscene.unity
    guid: 34a321d5bf4c01940841b2625b9cd607
  - enabled: 0
    path: Assets/Scenes/UnitTesting/TestIA.unity
    guid: 4bacefe7cf79fb040b9b39414f2cfc16
  m_configObjects:
    com.unity.input.settings: {fileID: 11400000, guid: cfc6a6fed8776cd40b03706e6c6feddc,
      type: 2}
