%YAML 1.1
%TAG !u! tag:unity3d.com,2011:
--- !u!1001 &2598979819605695718
PrefabInstance:
  m_ObjectHideFlags: 0
  serializedVersion: 2
  m_Modification:
    m_TransformParent: {fileID: 0}
    m_Modifications:
    - target: {fileID: 4216312535409684330, guid: 434085f6488fdac479472e7ab845aac1,
        type: 3}
      propertyPath: m_Materials.Array.data[0]
      value: 
      objectReference: {fileID: 2100000, guid: b77aa364cfefd81418a2c3d9a8cf9f88, type: 2}
    - target: {fileID: 5222803586493893300, guid: 434085f6488fdac479472e7ab845aac1,
        type: 3}
      propertyPath: noteColour
      value: 2
      objectReference: {fileID: 0}
    - target: {fileID: 6195037183067415419, guid: 434085f6488fdac479472e7ab845aac1,
        type: 3}
      propertyPath: m_LocalPosition.x
      value: 0
      objectReference: {fileID: 0}
    - target: {fileID: 6195037183067415419, guid: 434085f6488fdac479472e7ab845aac1,
        type: 3}
      propertyPath: m_LocalPosition.y
      value: 0
      objectReference: {fileID: 0}
    - target: {fileID: 6195037183067415419, guid: 434085f6488fdac479472e7ab845aac1,
        type: 3}
      propertyPath: m_LocalPosition.z
      value: 0
      objectReference: {fileID: 0}
    - target: {fileID: 6195037183067415419, guid: 434085f6488fdac479472e7ab845aac1,
        type: 3}
      propertyPath: m_LocalRotation.x
      value: 0
      objectReference: {fileID: 0}
    - target: {fileID: 6195037183067415419, guid: 434085f6488fdac479472e7ab845aac1,
        type: 3}
      propertyPath: m_LocalRotation.y
      value: 0
      objectReference: {fileID: 0}
    - target: {fileID: 6195037183067415419, guid: 434085f6488fdac479472e7ab845aac1,
        type: 3}
      propertyPath: m_LocalRotation.z
      value: 0
      objectReference: {fileID: 0}
    - target: {fileID: 6195037183067415419, guid: 434085f6488fdac479472e7ab845aac1,
        type: 3}
      propertyPath: m_LocalRotation.w
      value: 1
      objectReference: {fileID: 0}
    - target: {fileID: 6195037183067415419, guid: 434085f6488fdac479472e7ab845aac1,
        type: 3}
      propertyPath: m_RootOrder
      value: 0
      objectReference: {fileID: 0}
    - target: {fileID: 6195037183067415419, guid: 434085f6488fdac479472e7ab845aac1,
        type: 3}
      propertyPath: m_LocalEulerAnglesHint.x
      value: 0
      objectReference: {fileID: 0}
    - target: {fileID: 6195037183067415419, guid: 434085f6488fdac479472e7ab845aac1,
        type: 3}
      propertyPath: m_LocalEulerAnglesHint.y
      value: 0
      objectReference: {fileID: 0}
    - target: {fileID: 6195037183067415419, guid: 434085f6488fdac479472e7ab845aac1,
        type: 3}
      propertyPath: m_LocalEulerAnglesHint.z
      value: 0
      objectReference: {fileID: 0}
    - target: {fileID: 6823764678848657857, guid: 434085f6488fdac479472e7ab845aac1,
        type: 3}
      propertyPath: m_Name
      value: Interruptor (Yellow)
      objectReference: {fileID: 0}
    - target: {fileID: 7159429236236408141, guid: 434085f6488fdac479472e7ab845aac1,
        type: 3}
      propertyPath: noteColour
      value: 2
      objectReference: {fileID: 0}
    m_RemovedComponents: []
  m_SourcePrefab: {fileID: 100100000, guid: 434085f6488fdac479472e7ab845aac1, type: 3}
