%YAML 1.1
%TAG !u! tag:unity3d.com,2011:
--- !u!1001 &2626396641147502145
PrefabInstance:
  m_ObjectHideFlags: 0
  serializedVersion: 2
  m_Modification:
    m_TransformParent: {fileID: 1396761388551089972}
    m_Modifications:
    - target: {fileID: 2923704528920343655, guid: 33b6c45e02d5703418b8f75d8703bf9c,
        type: 3}
      propertyPath: m_Name
      value: ObjectHint
      objectReference: {fileID: 0}
    - target: {fileID: 3060761526256053705, guid: 33b6c45e02d5703418b8f75d8703bf9c,
        type: 3}
      propertyPath: targetCollider
      value: 
      objectReference: {fileID: 1396761388551089970}
    - target: {fileID: 8244074525277118662, guid: 33b6c45e02d5703418b8f75d8703bf9c,
        type: 3}
      propertyPath: m_LocalPosition.x
      value: 0
      objectReference: {fileID: 0}
    - target: {fileID: 8244074525277118662, guid: 33b6c45e02d5703418b8f75d8703bf9c,
        type: 3}
      propertyPath: m_LocalPosition.y
      value: 0
      objectReference: {fileID: 0}
    - target: {fileID: 8244074525277118662, guid: 33b6c45e02d5703418b8f75d8703bf9c,
        type: 3}
      propertyPath: m_LocalPosition.z
      value: 0
      objectReference: {fileID: 0}
    - target: {fileID: 8244074525277118662, guid: 33b6c45e02d5703418b8f75d8703bf9c,
        type: 3}
      propertyPath: m_LocalRotation.x
      value: 0
      objectReference: {fileID: 0}
    - target: {fileID: 8244074525277118662, guid: 33b6c45e02d5703418b8f75d8703bf9c,
        type: 3}
      propertyPath: m_LocalRotation.y
      value: -0.08776426
      objectReference: {fileID: 0}
    - target: {fileID: 8244074525277118662, guid: 33b6c45e02d5703418b8f75d8703bf9c,
        type: 3}
      propertyPath: m_LocalRotation.z
      value: 0
      objectReference: {fileID: 0}
    - target: {fileID: 8244074525277118662, guid: 33b6c45e02d5703418b8f75d8703bf9c,
        type: 3}
      propertyPath: m_LocalRotation.w
      value: 0.9961413
      objectReference: {fileID: 0}
    - target: {fileID: 8244074525277118662, guid: 33b6c45e02d5703418b8f75d8703bf9c,
        type: 3}
      propertyPath: m_RootOrder
      value: 1
      objectReference: {fileID: 0}
    - target: {fileID: 8244074525277118662, guid: 33b6c45e02d5703418b8f75d8703bf9c,
        type: 3}
      propertyPath: m_LocalEulerAnglesHint.x
      value: 0
      objectReference: {fileID: 0}
    - target: {fileID: 8244074525277118662, guid: 33b6c45e02d5703418b8f75d8703bf9c,
        type: 3}
      propertyPath: m_LocalEulerAnglesHint.y
      value: -10.070001
      objectReference: {fileID: 0}
    - target: {fileID: 8244074525277118662, guid: 33b6c45e02d5703418b8f75d8703bf9c,
        type: 3}
      propertyPath: m_LocalEulerAnglesHint.z
      value: 0
      objectReference: {fileID: 0}
    - target: {fileID: 8919641964818048481, guid: 33b6c45e02d5703418b8f75d8703bf9c,
        type: 3}
      propertyPath: m_LocalPosition.z
      value: 0
      objectReference: {fileID: 0}
    m_RemovedComponents: []
  m_SourcePrefab: {fileID: 100100000, guid: 33b6c45e02d5703418b8f75d8703bf9c, type: 3}
--- !u!1001 &2791014532920853953
PrefabInstance:
  m_ObjectHideFlags: 0
  serializedVersion: 2
  m_Modification:
    m_TransformParent: {fileID: 0}
    m_Modifications:
    - target: {fileID: 1742132719, guid: 3f945ad738dfd5e4f9c2813c609fe9de, type: 3}
      propertyPath: m_LocalPosition.z
      value: 0
      objectReference: {fileID: 0}
    - target: {fileID: 3626346054762105130, guid: 3f945ad738dfd5e4f9c2813c609fe9de,
        type: 3}
      propertyPath: m_RootOrder
      value: 0
      objectReference: {fileID: 0}
    - target: {fileID: 3880387619265374964, guid: 3f945ad738dfd5e4f9c2813c609fe9de,
        type: 3}
      propertyPath: m_Name
      value: Boot (Sign)
      objectReference: {fileID: 0}
    - target: {fileID: 3880387619265374965, guid: 3f945ad738dfd5e4f9c2813c609fe9de,
        type: 3}
      propertyPath: m_LocalPosition.x
      value: 6.3
      objectReference: {fileID: 0}
    - target: {fileID: 3880387619265374965, guid: 3f945ad738dfd5e4f9c2813c609fe9de,
        type: 3}
      propertyPath: m_LocalPosition.y
      value: 4.61
      objectReference: {fileID: 0}
    - target: {fileID: 3880387619265374965, guid: 3f945ad738dfd5e4f9c2813c609fe9de,
        type: 3}
      propertyPath: m_LocalPosition.z
      value: -2.13
      objectReference: {fileID: 0}
    - target: {fileID: 3880387619265374965, guid: 3f945ad738dfd5e4f9c2813c609fe9de,
        type: 3}
      propertyPath: m_LocalRotation.x
      value: 0
      objectReference: {fileID: 0}
    - target: {fileID: 3880387619265374965, guid: 3f945ad738dfd5e4f9c2813c609fe9de,
        type: 3}
      propertyPath: m_LocalRotation.y
      value: 0
      objectReference: {fileID: 0}
    - target: {fileID: 3880387619265374965, guid: 3f945ad738dfd5e4f9c2813c609fe9de,
        type: 3}
      propertyPath: m_LocalRotation.z
      value: 0
      objectReference: {fileID: 0}
    - target: {fileID: 3880387619265374965, guid: 3f945ad738dfd5e4f9c2813c609fe9de,
        type: 3}
      propertyPath: m_LocalRotation.w
      value: 1
      objectReference: {fileID: 0}
    - target: {fileID: 3880387619265374965, guid: 3f945ad738dfd5e4f9c2813c609fe9de,
        type: 3}
      propertyPath: m_RootOrder
      value: 0
      objectReference: {fileID: 0}
    - target: {fileID: 3880387619265374965, guid: 3f945ad738dfd5e4f9c2813c609fe9de,
        type: 3}
      propertyPath: m_LocalEulerAnglesHint.x
      value: 0
      objectReference: {fileID: 0}
    - target: {fileID: 3880387619265374965, guid: 3f945ad738dfd5e4f9c2813c609fe9de,
        type: 3}
      propertyPath: m_LocalEulerAnglesHint.y
      value: 0
      objectReference: {fileID: 0}
    - target: {fileID: 3880387619265374965, guid: 3f945ad738dfd5e4f9c2813c609fe9de,
        type: 3}
      propertyPath: m_LocalEulerAnglesHint.z
      value: 0
      objectReference: {fileID: 0}
    - target: {fileID: 7381481962381568882, guid: 3f945ad738dfd5e4f9c2813c609fe9de,
        type: 3}
      propertyPath: m_LocalPosition.z
      value: 0
      objectReference: {fileID: 0}
    - target: {fileID: 8057066991970430549, guid: 3f945ad738dfd5e4f9c2813c609fe9de,
        type: 3}
      propertyPath: m_RootOrder
      value: 0
      objectReference: {fileID: 0}
    m_RemovedComponents: []
  m_SourcePrefab: {fileID: 100100000, guid: 3f945ad738dfd5e4f9c2813c609fe9de, type: 3}
--- !u!4 &1396761388551089972 stripped
Transform:
  m_CorrespondingSourceObject: {fileID: 3880387619265374965, guid: 3f945ad738dfd5e4f9c2813c609fe9de,
    type: 3}
  m_PrefabInstance: {fileID: 2791014532920853953}
  m_PrefabAsset: {fileID: 0}
--- !u!65 &1396761388551089970 stripped
BoxCollider:
  m_CorrespondingSourceObject: {fileID: 3880387619265374963, guid: 3f945ad738dfd5e4f9c2813c609fe9de,
    type: 3}
  m_PrefabInstance: {fileID: 2791014532920853953}
  m_PrefabAsset: {fileID: 0}
