%YAML 1.1
%TAG !u! tag:unity3d.com,2011:
--- !u!74 &7400000
AnimationClip:
  m_ObjectHideFlags: 0
  m_CorrespondingSourceObject: {fileID: 0}
  m_PrefabInstance: {fileID: 0}
  m_PrefabAsset: {fileID: 0}
  m_Name: walkRight
  serializedVersion: 6
  m_Legacy: 0
  m_Compressed: 0
  m_UseHighQualityCurve: 1
  m_RotationCurves:
  - curve:
      serializedVersion: 2
      m_Curve:
      - serializedVersion: 3
        time: 0
        value: {x: 0, y: 0, z: 0, w: 1}
        inSlope: {x: 0.0040025334, y: 0.0013344744, z: -0.0040027113, w: 0}
        outSlope: {x: 0.0040025334, y: 0.0013344744, z: -0.0040027113, w: 0}
        tangentMode: 0
        weightedMode: 0
        inWeight: {x: 0.33333334, y: 0.33333334, z: 0.33333334, w: 0.33333334}
        outWeight: {x: 0.33333334, y: 0.33333334, z: 0.33333334, w: 0.33333334}
      - serializedVersion: 3
        time: 0.016666668
        value: {x: 0.00006670889, y: 0.000022241242, z: -0.00006671186, w: 1}
        inSlope: {x: 0.0076322593, y: 0.0025462438, z: -0.007633553, w: -0.0000035762785}
        outSlope: {x: 0.0076322593, y: 0.0025462438, z: -0.007633553, w: -0.0000035762785}
        tangentMode: 0
        weightedMode: 0
        inWeight: {x: 0.33333334, y: 0.33333334, z: 0.33333334, w: 0.33333334}
        outWeight: {x: 0.33333334, y: 0.33333334, z: 0.33333334, w: 0.33333334}
      - serializedVersion: 3
        time: 0.033333335
        value: {x: 0.00025440866, y: 0.0000848748, z: -0.0002544518, w: 0.9999999}
        inSlope: {x: 0.01433205, y: 0.0047870856, z: -0.014337892, w: -0.0000071525565}
        outSlope: {x: 0.01433205, y: 0.0047870856, z: -0.014337892, w: -0.0000071525565}
        tangentMode: 0
        weightedMode: 0
        inWeight: {x: 0.33333334, y: 0.33333334, z: 0.33333334, w: 0.33333334}
        outWeight: {x: 0.33333334, y: 0.33333334, z: 0.33333334, w: 0.33333334}
      - serializedVersion: 3
        time: 0.050000004
        value: {x: 0.00054444396, y: 0.00018181078, z: -0.00054464163, w: 0.99999976}
        inSlope: {x: 0.01991222, y: 0.006663365, z: -0.019927796, w: -0.000023245813}
        outSlope: {x: 0.01991222, y: 0.006663365, z: -0.019927796, w: -0.000023245813}
        tangentMode: 0
        weightedMode: 0
        inWeight: {x: 0.33333334, y: 0.33333334, z: 0.33333334, w: 0.33333334}
        outWeight: {x: 0.33333334, y: 0.33333334, z: 0.33333334, w: 0.33333334}
      - serializedVersion: 3
        time: 0.06666667
        value: {x: 0.0009181494, y: 0.00030698697, z: -0.0009187117, w: 0.9999991}
        inSlope: {x: 0.024372557, y: 0.0081757195, z: -0.024403475, w: -0.000050067905}
        outSlope: {x: 0.024372557, y: 0.0081757195, z: -0.024403475, w: -0.000050067905}
        tangentMode: 0
        weightedMode: 0
        inWeight: {x: 0.33333334, y: 0.33333334, z: 0.33333334, w: 0.33333334}
        outWeight: {x: 0.33333334, y: 0.33333334, z: 0.33333334, w: 0.33333334}
      - serializedVersion: 3
        time: 0.083333336
        value: {x: 0.0013568625, y: 0.00045433475, z: -0.0013580908, w: 0.9999981}
        inSlope: {x: 0.027713457, y: 0.009322911, z: -0.027764522, w: -0.00007867814}
        outSlope: {x: 0.027713457, y: 0.009322911, z: -0.027764522, w: -0.00007867814}
        tangentMode: 0
        weightedMode: 0
        inWeight: {x: 0.33333334, y: 0.33333334, z: 0.33333334, w: 0.33333334}
        outWeight: {x: 0.33333334, y: 0.33333334, z: 0.33333334, w: 0.33333334}
      - serializedVersion: 3
        time: 0.1
        value: {x: 0.0018419313, y: 0.00061775063, z: -0.0018441958, w: 0.9999965}
        inSlope: {x: 0.02993578, y: 0.010102253, z: -0.030010005, w: -0.00011980535}
        outSlope: {x: 0.02993578, y: 0.010102253, z: -0.030010005, w: -0.00011980535}
        tangentMode: 0
        weightedMode: 0
        inWeight: {x: 0.33333334, y: 0.33333334, z: 0.33333334, w: 0.33333334}
        outWeight: {x: 0.33333334, y: 0.33333334, z: 0.33333334, w: 0.33333334}
      - serializedVersion: 3
        time: 0.11666667
        value: {x: 0.0023547218, y: 0.0007910765, z: -0.0023584242, w: 0.9999941}
        inSlope: {x: 0.031040804, y: 0.010510016, z: -0.0311387, w: -0.00015914437}
        outSlope: {x: 0.031040804, y: 0.010510016, z: -0.0311387, w: -0.00015914437}
        tangentMode: 0
        weightedMode: 0
        inWeight: {x: 0.33333334, y: 0.33333334, z: 0.33333334, w: 0.33333334}
        outWeight: {x: 0.33333334, y: 0.33333334, z: 0.33333334, w: 0.33333334}
      - serializedVersion: 3
        time: 0.13333334
        value: {x: 0.002876625, y: 0.00096808455, z: -0.0028821526, w: 0.9999912}
        inSlope: {x: 0.031029988, y: 0.010541864, z: -0.031149153, w: -0.00018954274}
        outSlope: {x: 0.031029988, y: 0.010541864, z: -0.031149153, w: -0.00018954274}
        tangentMode: 0
        weightedMode: 0
        inWeight: {x: 0.33333334, y: 0.33333334, z: 0.33333334, w: 0.33333334}
        outWeight: {x: 0.33333334, y: 0.33333334, z: 0.33333334, w: 0.33333334}
      - serializedVersion: 3
        time: 0.15
        value: {x: 0.003389055, y: 0.001142472, z: -0.0033967295, w: 0.9999878}
        inSlope: {x: 0.02990485, y: 0.010193254, z: -0.030039877, w: -0.00021100046}
        outSlope: {x: 0.02990485, y: 0.010193254, z: -0.030039877, w: -0.00021100046}
        tangentMode: 0
        weightedMode: 0
        inWeight: {x: 0.33333334, y: 0.33333334, z: 0.33333334, w: 0.33333334}
        outWeight: {x: 0.33333334, y: 0.33333334, z: 0.33333334, w: 0.33333334}
      - serializedVersion: 3
        time: 0.16666667
        value: {x: 0.0038734532, y: 0.0013078597, z: -0.0038834817, w: 0.99998415}
        inSlope: {x: 0.027666917, y: 0.009459823, z: -0.027809493, w: -0.0002217293}
        outSlope: {x: 0.027666917, y: 0.009459823, z: -0.027809493, w: -0.0002217293}
        tangentMode: 0
        weightedMode: 0
        inWeight: {x: 0.33333334, y: 0.33333334, z: 0.33333334, w: 0.33333334}
        outWeight: {x: 0.33333334, y: 0.33333334, z: 0.33333334, w: 0.33333334}
      - serializedVersion: 3
        time: 0.18333334
        value: {x: 0.0043112854, y: 0.0014577995, z: -0.0043237126, w: 0.9999804}
        inSlope: {x: 0.024317417, y: 0.008337895, z: -0.024456754, w: -0.00022530557}
        outSlope: {x: 0.024317417, y: 0.008337895, z: -0.024456754, w: -0.00022530557}
        tangentMode: 0
        weightedMode: 0
        inWeight: {x: 0.33333334, y: 0.33333334, z: 0.33333334, w: 0.33333334}
        outWeight: {x: 0.33333334, y: 0.33333334, z: 0.33333334, w: 0.33333334}
      - serializedVersion: 3
        time: 0.2
        value: {x: 0.004684034, y: 0.0015857895, z: -0.004698707, w: 0.99997663}
        inSlope: {x: 0.019857332, y: 0.006824808, z: -0.019980852, w: -0.00019848348}
        outSlope: {x: 0.019857332, y: 0.006824808, z: -0.019980852, w: -0.00019848348}
        tangentMode: 0
        weightedMode: 0
        inWeight: {x: 0.33333334, y: 0.33333334, z: 0.33333334, w: 0.33333334}
        outWeight: {x: 0.33333334, y: 0.33333334, z: 0.33333334, w: 0.33333334}
      - serializedVersion: 3
        time: 0.21666667
        value: {x: 0.0049731964, y: 0.001685293, z: -0.004989741, w: 0.9999738}
        inSlope: {x: 0.014287123, y: 0.0049193185, z: -0.014381364, w: -0.00014662744}
        outSlope: {x: 0.014287123, y: 0.0049193185, z: -0.014381364, w: -0.00014662744}
        tangentMode: 0
        weightedMode: 0
        inWeight: {x: 0.33333334, y: 0.33333334, z: 0.33333334, w: 0.33333334}
        outWeight: {x: 0.33333334, y: 0.33333334, z: 0.33333334, w: 0.33333334}
      - serializedVersion: 3
        time: 0.23333333
        value: {x: 0.005160271, y: 0.0017497668, z: -0.0051780855, w: 0.99997175}
        inSlope: {x: 0.0076064942, y: 0.002622076, z: -0.007658434, w: -0.00008404256}
        outSlope: {x: 0.0076064942, y: 0.002622076, z: -0.007658434, w: -0.00008404256}
        tangentMode: 0
        weightedMode: 0
        inWeight: {x: 0.33333334, y: 0.33333334, z: 0.33333334, w: 0.33333334}
        outWeight: {x: 0.33333334, y: 0.33333334, z: 0.33333334, w: 0.33333334}
      - serializedVersion: 3
        time: 0.25
        value: {x: 0.005226746, y: 0.0017726956, z: -0.005245022, w: 0.999971}
        inSlope: {x: -0.0000034626573, y: 0.0006670843, z: -0.0000034105033, w: -0.0000017881594}
        outSlope: {x: -0.0000034626573, y: 0.0006670843, z: -0.0000034105033, w: -0.0000017881594}
        tangentMode: 0
        weightedMode: 0
        inWeight: {x: 0.33333334, y: 0.33333334, z: 0.33333334, w: 0.33333334}
        outWeight: {x: 0.33333334, y: 0.33333334, z: 0.33333334, w: 0.33333334}
      - serializedVersion: 3
        time: 0.26666668
        value: {x: 0.0051601557, y: 0.0017720029, z: -0.005178199, w: 0.9999717}
        inSlope: {x: -0.0076191993, y: -0.00007784686, z: 0.007645798, w: 0.000078678066}
        outSlope: {x: -0.0076191993, y: -0.00007784686, z: 0.007645798, w: 0.000078678066}
        tangentMode: 0
        weightedMode: 0
        inWeight: {x: 0.33333334, y: 0.33333334, z: 0.33333334, w: 0.33333334}
        outWeight: {x: 0.33333334, y: 0.33333334, z: 0.33333334, w: 0.33333334}
      - serializedVersion: 3
        time: 0.28333336
        value: {x: 0.0049727727, y: 0.0017701007, z: -0.004990162, w: 0.9999736}
        inSlope: {x: -0.014309266, y: -0.00014110573, z: 0.014359278, w: 0.00013947475}
        outSlope: {x: -0.014309266, y: -0.00014110573, z: 0.014359278, w: 0.00013947475}
        tangentMode: 0
        weightedMode: 0
        inWeight: {x: 0.33333334, y: 0.33333334, z: 0.33333334, w: 0.33333334}
        outWeight: {x: 0.33333334, y: 0.33333334, z: 0.33333334, w: 0.33333334}
      - serializedVersion: 3
        time: 0.30000004
        value: {x: 0.00468318, y: 0.0017672994, z: -0.004699556, w: 0.99997634}
        inSlope: {x: -0.01988436, y: -0.00018490812, z: 0.019953929, w: 0.00018596635}
        outSlope: {x: -0.01988436, y: -0.00018490812, z: 0.019953929, w: 0.00018596635}
        tangentMode: 0
        weightedMode: 0
        inWeight: {x: 0.33333334, y: 0.33333334, z: 0.33333334, w: 0.33333334}
        outWeight: {x: 0.33333334, y: 0.33333334, z: 0.33333334, w: 0.33333334}
      - serializedVersion: 3
        time: 0.31666672
        value: {x: 0.00430996, y: 0.0017639371, z: -0.0043250304, w: 0.9999798}
        inSlope: {x: -0.024344567, y: -0.00020863937, z: 0.024429714, w: 0.0002127884}
        outSlope: {x: -0.024344567, y: -0.00020863937, z: 0.024429714, w: 0.0002127884}
        tangentMode: 0
        weightedMode: 0
        inWeight: {x: 0.33333334, y: 0.33333334, z: 0.33333334, w: 0.33333334}
        outWeight: {x: 0.33333334, y: 0.33333334, z: 0.33333334, w: 0.33333334}
      - serializedVersion: 3
        time: 0.3333334
        value: {x: 0.0038716935, y: 0.0017603447, z: -0.0038852317, w: 0.99998343}
        inSlope: {x: -0.027689852, y: -0.00021351484, z: 0.02778665, w: 0.0002127884}
        outSlope: {x: -0.027689852, y: -0.00021351484, z: 0.02778665, w: 0.0002127884}
        tangentMode: 0
        weightedMode: 0
        inWeight: {x: 0.33333334, y: 0.33333334, z: 0.33333334, w: 0.33333334}
        outWeight: {x: 0.33333334, y: 0.33333334, z: 0.33333334, w: 0.33333334}
      - serializedVersion: 3
        time: 0.35000008
        value: {x: 0.0033869643, y: 0.0017568199, z: -0.003398808, w: 0.9999869}
        inSlope: {x: -0.029920086, y: -0.00020220625, z: 0.030024707, w: 0.00020027143}
        outSlope: {x: -0.029920086, y: -0.00020220625, z: 0.030024707, w: 0.00020027143}
        tangentMode: 0
        weightedMode: 0
        inWeight: {x: 0.33333334, y: 0.33333334, z: 0.33333334, w: 0.33333334}
        outWeight: {x: 0.33333334, y: 0.33333334, z: 0.33333334, w: 0.33333334}
      - serializedVersion: 3
        time: 0.36666676
        value: {x: 0.0028743565, y: 0.0017536045, z: -0.0028844073, w: 0.9999901}
        inSlope: {x: -0.031035282, y: -0.0001784366, z: 0.031143814, w: 0.00017881379}
        outSlope: {x: -0.031035282, y: -0.0001784366, z: 0.031143814, w: 0.00017881379}
        tangentMode: 0
        weightedMode: 0
        inWeight: {x: 0.33333334, y: 0.33333334, z: 0.33333334, w: 0.33333334}
        outWeight: {x: 0.33333334, y: 0.33333334, z: 0.33333334, w: 0.33333334}
      - serializedVersion: 3
        time: 0.38333344
        value: {x: 0.002352454, y: 0.001750872, z: -0.00236068, w: 0.99999285}
        inSlope: {x: -0.03103546, y: -0.00014655397, z: 0.031143978, w: 0.00015020359}
        outSlope: {x: -0.03103546, y: -0.00014655397, z: 0.031143978, w: 0.00015020359}
        tangentMode: 0
        weightedMode: 0
        inWeight: {x: 0.33333334, y: 0.33333334, z: 0.33333334, w: 0.33333334}
        outWeight: {x: 0.33333334, y: 0.33333334, z: 0.33333334, w: 0.33333334}
      - serializedVersion: 3
        time: 0.40000013
        value: {x: 0.0018398402, y: 0.0017487194, z: -0.0018462738, w: 0.9999951}
        inSlope: {x: -0.029920548, y: -0.0001111195, z: 0.030025167, w: 0.000114440816}
        outSlope: {x: -0.029920548, y: -0.0001111195, z: 0.030025167, w: 0.000114440816}
        tangentMode: 0
        weightedMode: 0
        inWeight: {x: 0.33333334, y: 0.33333334, z: 0.33333334, w: 0.33333334}
        outWeight: {x: 0.33333334, y: 0.33333334, z: 0.33333334, w: 0.33333334}
      - serializedVersion: 3
        time: 0.4166668
        value: {x: 0.0013551016, y: 0.001747168, z: -0.0013598402, w: 0.99999666}
        inSlope: {x: -0.027690506, y: -0.00007646734, z: 0.027787335, w: 0.00007510179}
        outSlope: {x: -0.027690506, y: -0.00007646734, z: 0.027787335, w: 0.00007510179}
        tangentMode: 0
        weightedMode: 0
        inWeight: {x: 0.33333334, y: 0.33333334, z: 0.33333334, w: 0.33333334}
        outWeight: {x: 0.33333334, y: 0.33333334, z: 0.33333334, w: 0.33333334}
      - serializedVersion: 3
        time: 0.4333335
        value: {x: 0.0009168226, y: 0.0017461705, z: -0.00092002854, w: 0.9999976}
        inSlope: {x: -0.024345398, y: -0.000046309975, z: 0.024430532, w: 0.000046491587}
        outSlope: {x: -0.024345398, y: -0.000046309975, z: 0.024430532, w: 0.000046491587}
        tangentMode: 0
        weightedMode: 0
        inWeight: {x: 0.33333334, y: 0.33333334, z: 0.33333334, w: 0.33333334}
        outWeight: {x: 0.33333334, y: 0.33333334, z: 0.33333334, w: 0.33333334}
      - serializedVersion: 3
        time: 0.45000017
        value: {x: 0.00054358767, y: 0.0017456244, z: -0.00054548844, w: 0.9999982}
        inSlope: {x: -0.019885167, y: -0.00002332961, z: 0.019954704, w: 0.000021457654}
        outSlope: {x: -0.019885167, y: -0.00002332961, z: 0.019954704, w: 0.000021457654}
        tangentMode: 0
        weightedMode: 0
        inWeight: {x: 0.33333334, y: 0.33333334, z: 0.33333334, w: 0.33333334}
        outWeight: {x: 0.33333334, y: 0.33333334, z: 0.33333334, w: 0.33333334}
      - serializedVersion: 3
        time: 0.46666685
        value: {x: 0.00025398307, y: 0.0017453928, z: -0.00025487124, w: 0.99999833}
        inSlope: {x: -0.014309857, y: -0.000008748604, z: 0.014359895, w: 0.0000071525515}
        outSlope: {x: -0.014309857, y: -0.000008748604, z: 0.014359895, w: 0.0000071525515}
        tangentMode: 0
        weightedMode: 0
        inWeight: {x: 0.33333334, y: 0.33333334, z: 0.33333334, w: 0.33333334}
        outWeight: {x: 0.33333334, y: 0.33333334, z: 0.33333334, w: 0.33333334}
      - serializedVersion: 3
        time: 0.48333353
        value: {x: 0.00006659201, y: 0.0017453327, z: -0.00006682487, w: 0.99999845}
        inSlope: {x: -0.0076195104, y: -0.0000019348226, z: 0.0076461555, w: 0.0000035762757}
        outSlope: {x: -0.0076195104, y: -0.0000019348226, z: 0.0076461555, w: 0.0000035762757}
        tangentMode: 0
        weightedMode: 0
        inWeight: {x: 0.33333334, y: 0.33333334, z: 0.33333334, w: 0.33333334}
        outWeight: {x: 0.33333334, y: 0.33333334, z: 0.33333334, w: 0.33333334}
      - serializedVersion: 3
        time: 0.5
        value: {x: 0, y: 0.0017453283, z: 0, w: 0.99999845}
        inSlope: {x: -0.003995567, y: -0.00000026543003, z: 0.004009539, w: 0}
        outSlope: {x: -0.003995567, y: -0.00000026543003, z: 0.004009539, w: 0}
        tangentMode: 0
        weightedMode: 0
        inWeight: {x: 0.33333334, y: 0.33333334, z: 0.33333334, w: 0.33333334}
        outWeight: {x: 0.33333334, y: 0.33333334, z: 0.33333334, w: 0.33333334}
      m_PreInfinity: 2
      m_PostInfinity: 2
      m_RotationOrder: 4
    path: 
  m_CompressedRotationCurves: []
  m_EulerCurves: []
  m_PositionCurves: []
  m_ScaleCurves: []
  m_FloatCurves: []
  m_PPtrCurves: []
  m_SampleRate: 60
  m_WrapMode: 0
  m_Bounds:
    m_Center: {x: 0, y: 0, z: 0}
    m_Extent: {x: 0, y: 0, z: 0}
  m_ClipBindingConstant:
    genericBindings:
    - serializedVersion: 2
      path: 0
      attribute: 2
      script: {fileID: 0}
      typeID: 4
      customType: 0
      isPPtrCurve: 0
    pptrCurveMapping: []
  m_AnimationClipSettings:
    serializedVersion: 2
    m_AdditiveReferencePoseClip: {fileID: 0}
    m_AdditiveReferencePoseTime: 0
    m_StartTime: 0
    m_StopTime: 0.5
    m_OrientationOffsetY: 0
    m_Level: 0
    m_CycleOffset: 0
    m_HasAdditiveReferencePose: 0
    m_LoopTime: 0
    m_LoopBlend: 0
    m_LoopBlendOrientation: 0
    m_LoopBlendPositionY: 0
    m_LoopBlendPositionXZ: 0
    m_KeepOriginalOrientation: 0
    m_KeepOriginalPositionY: 1
    m_KeepOriginalPositionXZ: 0
    m_HeightFromFeet: 0
    m_Mirror: 0
  m_EditorCurves:
  - curve:
      serializedVersion: 2
      m_Curve:
      - serializedVersion: 3
        time: 0
        value: 0
        inSlope: 0.0040025334
        outSlope: 0.0040025334
        tangentMode: 0
        weightedMode: 0
        inWeight: 0.33333334
        outWeight: 0.33333334
      - serializedVersion: 3
        time: 0.016666668
        value: 0.00006670889
        inSlope: 0.0076322593
        outSlope: 0.0076322593
        tangentMode: 0
        weightedMode: 0
        inWeight: 0.33333334
        outWeight: 0.33333334
      - serializedVersion: 3
        time: 0.033333335
        value: 0.00025440866
        inSlope: 0.01433205
        outSlope: 0.01433205
        tangentMode: 0
        weightedMode: 0
        inWeight: 0.33333334
        outWeight: 0.33333334
      - serializedVersion: 3
        time: 0.050000004
        value: 0.00054444396
        inSlope: 0.01991222
        outSlope: 0.01991222
        tangentMode: 0
        weightedMode: 0
        inWeight: 0.33333334
        outWeight: 0.33333334
      - serializedVersion: 3
        time: 0.06666667
        value: 0.0009181494
        inSlope: 0.024372557
        outSlope: 0.024372557
        tangentMode: 0
        weightedMode: 0
        inWeight: 0.33333334
        outWeight: 0.33333334
      - serializedVersion: 3
        time: 0.083333336
        value: 0.0013568625
        inSlope: 0.027713457
        outSlope: 0.027713457
        tangentMode: 0
        weightedMode: 0
        inWeight: 0.33333334
        outWeight: 0.33333334
      - serializedVersion: 3
        time: 0.1
        value: 0.0018419313
        inSlope: 0.02993578
        outSlope: 0.02993578
        tangentMode: 0
        weightedMode: 0
        inWeight: 0.33333334
        outWeight: 0.33333334
      - serializedVersion: 3
        time: 0.11666667
        value: 0.0023547218
        inSlope: 0.031040804
        outSlope: 0.031040804
        tangentMode: 0
        weightedMode: 0
        inWeight: 0.33333334
        outWeight: 0.33333334
      - serializedVersion: 3
        time: 0.13333334
        value: 0.002876625
        inSlope: 0.031029988
        outSlope: 0.031029988
        tangentMode: 0
        weightedMode: 0
        inWeight: 0.33333334
        outWeight: 0.33333334
      - serializedVersion: 3
        time: 0.15
        value: 0.003389055
        inSlope: 0.02990485
        outSlope: 0.02990485
        tangentMode: 0
        weightedMode: 0
        inWeight: 0.33333334
        outWeight: 0.33333334
      - serializedVersion: 3
        time: 0.16666667
        value: 0.0038734532
        inSlope: 0.027666917
        outSlope: 0.027666917
        tangentMode: 0
        weightedMode: 0
        inWeight: 0.33333334
        outWeight: 0.33333334
      - serializedVersion: 3
        time: 0.18333334
        value: 0.0043112854
        inSlope: 0.024317417
        outSlope: 0.024317417
        tangentMode: 0
        weightedMode: 0
        inWeight: 0.33333334
        outWeight: 0.33333334
      - serializedVersion: 3
        time: 0.2
        value: 0.004684034
        inSlope: 0.019857332
        outSlope: 0.019857332
        tangentMode: 0
        weightedMode: 0
        inWeight: 0.33333334
        outWeight: 0.33333334
      - serializedVersion: 3
        time: 0.21666667
        value: 0.0049731964
        inSlope: 0.014287123
        outSlope: 0.014287123
        tangentMode: 0
        weightedMode: 0
        inWeight: 0.33333334
        outWeight: 0.33333334
      - serializedVersion: 3
        time: 0.23333333
        value: 0.005160271
        inSlope: 0.0076064942
        outSlope: 0.0076064942
        tangentMode: 0
        weightedMode: 0
        inWeight: 0.33333334
        outWeight: 0.33333334
      - serializedVersion: 3
        time: 0.25
        value: 0.005226746
        inSlope: -0.0000034626573
        outSlope: -0.0000034626573
        tangentMode: 0
        weightedMode: 0
        inWeight: 0.33333334
        outWeight: 0.33333334
      - serializedVersion: 3
        time: 0.26666668
        value: 0.0051601557
        inSlope: -0.0076191993
        outSlope: -0.0076191993
        tangentMode: 0
        weightedMode: 0
        inWeight: 0.33333334
        outWeight: 0.33333334
      - serializedVersion: 3
        time: 0.28333336
        value: 0.0049727727
        inSlope: -0.014309266
        outSlope: -0.014309266
        tangentMode: 0
        weightedMode: 0
        inWeight: 0.33333334
        outWeight: 0.33333334
      - serializedVersion: 3
        time: 0.30000004
        value: 0.00468318
        inSlope: -0.01988436
        outSlope: -0.01988436
        tangentMode: 0
        weightedMode: 0
        inWeight: 0.33333334
        outWeight: 0.33333334
      - serializedVersion: 3
        time: 0.31666672
        value: 0.00430996
        inSlope: -0.024344567
        outSlope: -0.024344567
        tangentMode: 0
        weightedMode: 0
        inWeight: 0.33333334
        outWeight: 0.33333334
      - serializedVersion: 3
        time: 0.3333334
        value: 0.0038716935
        inSlope: -0.027689852
        outSlope: -0.027689852
        tangentMode: 0
        weightedMode: 0
        inWeight: 0.33333334
        outWeight: 0.33333334
      - serializedVersion: 3
        time: 0.35000008
        value: 0.0033869643
        inSlope: -0.029920086
        outSlope: -0.029920086
        tangentMode: 0
        weightedMode: 0
        inWeight: 0.33333334
        outWeight: 0.33333334
      - serializedVersion: 3
        time: 0.36666676
        value: 0.0028743565
        inSlope: -0.031035282
        outSlope: -0.031035282
        tangentMode: 0
        weightedMode: 0
        inWeight: 0.33333334
        outWeight: 0.33333334
      - serializedVersion: 3
        time: 0.38333344
        value: 0.002352454
        inSlope: -0.03103546
        outSlope: -0.03103546
        tangentMode: 0
        weightedMode: 0
        inWeight: 0.33333334
        outWeight: 0.33333334
      - serializedVersion: 3
        time: 0.40000013
        value: 0.0018398402
        inSlope: -0.029920548
        outSlope: -0.029920548
        tangentMode: 0
        weightedMode: 0
        inWeight: 0.33333334
        outWeight: 0.33333334
      - serializedVersion: 3
        time: 0.4166668
        value: 0.0013551016
        inSlope: -0.027690506
        outSlope: -0.027690506
        tangentMode: 0
        weightedMode: 0
        inWeight: 0.33333334
        outWeight: 0.33333334
      - serializedVersion: 3
        time: 0.4333335
        value: 0.0009168226
        inSlope: -0.024345398
        outSlope: -0.024345398
        tangentMode: 0
        weightedMode: 0
        inWeight: 0.33333334
        outWeight: 0.33333334
      - serializedVersion: 3
        time: 0.45000017
        value: 0.00054358767
        inSlope: -0.019885167
        outSlope: -0.019885167
        tangentMode: 0
        weightedMode: 0
        inWeight: 0.33333334
        outWeight: 0.33333334
      - serializedVersion: 3
        time: 0.46666685
        value: 0.00025398307
        inSlope: -0.014309857
        outSlope: -0.014309857
        tangentMode: 0
        weightedMode: 0
        inWeight: 0.33333334
        outWeight: 0.33333334
      - serializedVersion: 3
        time: 0.48333353
        value: 0.00006659201
        inSlope: -0.0076195104
        outSlope: -0.0076195104
        tangentMode: 0
        weightedMode: 0
        inWeight: 0.33333334
        outWeight: 0.33333334
      - serializedVersion: 3
        time: 0.5
        value: 0
        inSlope: -0.003995567
        outSlope: -0.003995567
        tangentMode: 0
        weightedMode: 0
        inWeight: 0.33333334
        outWeight: 0.33333334
      m_PreInfinity: 2
      m_PostInfinity: 2
      m_RotationOrder: 4
    attribute: m_LocalRotation.x
    path: 
    classID: 4
    script: {fileID: 0}
  - curve:
      serializedVersion: 2
      m_Curve:
      - serializedVersion: 3
        time: 0
        value: 0
        inSlope: 0.0013344744
        outSlope: 0.0013344744
        tangentMode: 0
        weightedMode: 0
        inWeight: 0.33333334
        outWeight: 0.33333334
      - serializedVersion: 3
        time: 0.016666668
        value: 0.000022241242
        inSlope: 0.0025462438
        outSlope: 0.0025462438
        tangentMode: 0
        weightedMode: 0
        inWeight: 0.33333334
        outWeight: 0.33333334
      - serializedVersion: 3
        time: 0.033333335
        value: 0.0000848748
        inSlope: 0.0047870856
        outSlope: 0.0047870856
        tangentMode: 0
        weightedMode: 0
        inWeight: 0.33333334
        outWeight: 0.33333334
      - serializedVersion: 3
        time: 0.050000004
        value: 0.00018181078
        inSlope: 0.006663365
        outSlope: 0.006663365
        tangentMode: 0
        weightedMode: 0
        inWeight: 0.33333334
        outWeight: 0.33333334
      - serializedVersion: 3
        time: 0.06666667
        value: 0.00030698697
        inSlope: 0.0081757195
        outSlope: 0.0081757195
        tangentMode: 0
        weightedMode: 0
        inWeight: 0.33333334
        outWeight: 0.33333334
      - serializedVersion: 3
        time: 0.083333336
        value: 0.00045433475
        inSlope: 0.009322911
        outSlope: 0.009322911
        tangentMode: 0
        weightedMode: 0
        inWeight: 0.33333334
        outWeight: 0.33333334
      - serializedVersion: 3
        time: 0.1
        value: 0.00061775063
        inSlope: 0.010102253
        outSlope: 0.010102253
        tangentMode: 0
        weightedMode: 0
        inWeight: 0.33333334
        outWeight: 0.33333334
      - serializedVersion: 3
        time: 0.11666667
        value: 0.0007910765
        inSlope: 0.010510016
        outSlope: 0.010510016
        tangentMode: 0
        weightedMode: 0
        inWeight: 0.33333334
        outWeight: 0.33333334
      - serializedVersion: 3
        time: 0.13333334
        value: 0.00096808455
        inSlope: 0.010541864
        outSlope: 0.010541864
        tangentMode: 0
        weightedMode: 0
        inWeight: 0.33333334
        outWeight: 0.33333334
      - serializedVersion: 3
        time: 0.15
        value: 0.001142472
        inSlope: 0.010193254
        outSlope: 0.010193254
        tangentMode: 0
        weightedMode: 0
        inWeight: 0.33333334
        outWeight: 0.33333334
      - serializedVersion: 3
        time: 0.16666667
        value: 0.0013078597
        inSlope: 0.009459823
        outSlope: 0.009459823
        tangentMode: 0
        weightedMode: 0
        inWeight: 0.33333334
        outWeight: 0.33333334
      - serializedVersion: 3
        time: 0.18333334
        value: 0.0014577995
        inSlope: 0.008337895
        outSlope: 0.008337895
        tangentMode: 0
        weightedMode: 0
        inWeight: 0.33333334
        outWeight: 0.33333334
      - serializedVersion: 3
        time: 0.2
        value: 0.0015857895
        inSlope: 0.006824808
        outSlope: 0.006824808
        tangentMode: 0
        weightedMode: 0
        inWeight: 0.33333334
        outWeight: 0.33333334
      - serializedVersion: 3
        time: 0.21666667
        value: 0.001685293
        inSlope: 0.0049193185
        outSlope: 0.0049193185
        tangentMode: 0
        weightedMode: 0
        inWeight: 0.33333334
        outWeight: 0.33333334
      - serializedVersion: 3
        time: 0.23333333
        value: 0.0017497668
        inSlope: 0.002622076
        outSlope: 0.002622076
        tangentMode: 0
        weightedMode: 0
        inWeight: 0.33333334
        outWeight: 0.33333334
      - serializedVersion: 3
        time: 0.25
        value: 0.0017726956
        inSlope: 0.0006670843
        outSlope: 0.0006670843
        tangentMode: 0
        weightedMode: 0
        inWeight: 0.33333334
        outWeight: 0.33333334
      - serializedVersion: 3
        time: 0.26666668
        value: 0.0017720029
        inSlope: -0.00007784686
        outSlope: -0.00007784686
        tangentMode: 0
        weightedMode: 0
        inWeight: 0.33333334
        outWeight: 0.33333334
      - serializedVersion: 3
        time: 0.28333336
        value: 0.0017701007
        inSlope: -0.00014110573
        outSlope: -0.00014110573
        tangentMode: 0
        weightedMode: 0
        inWeight: 0.33333334
        outWeight: 0.33333334
      - serializedVersion: 3
        time: 0.30000004
        value: 0.0017672994
        inSlope: -0.00018490812
        outSlope: -0.00018490812
        tangentMode: 0
        weightedMode: 0
        inWeight: 0.33333334
        outWeight: 0.33333334
      - serializedVersion: 3
        time: 0.31666672
        value: 0.0017639371
        inSlope: -0.00020863937
        outSlope: -0.00020863937
        tangentMode: 0
        weightedMode: 0
        inWeight: 0.33333334
        outWeight: 0.33333334
      - serializedVersion: 3
        time: 0.3333334
        value: 0.0017603447
        inSlope: -0.00021351484
        outSlope: -0.00021351484
        tangentMode: 0
        weightedMode: 0
        inWeight: 0.33333334
        outWeight: 0.33333334
      - serializedVersion: 3
        time: 0.35000008
        value: 0.0017568199
        inSlope: -0.00020220625
        outSlope: -0.00020220625
        tangentMode: 0
        weightedMode: 0
        inWeight: 0.33333334
        outWeight: 0.33333334
      - serializedVersion: 3
        time: 0.36666676
        value: 0.0017536045
        inSlope: -0.0001784366
        outSlope: -0.0001784366
        tangentMode: 0
        weightedMode: 0
        inWeight: 0.33333334
        outWeight: 0.33333334
      - serializedVersion: 3
        time: 0.38333344
        value: 0.001750872
        inSlope: -0.00014655397
        outSlope: -0.00014655397
        tangentMode: 0
        weightedMode: 0
        inWeight: 0.33333334
        outWeight: 0.33333334
      - serializedVersion: 3
        time: 0.40000013
        value: 0.0017487194
        inSlope: -0.0001111195
        outSlope: -0.0001111195
        tangentMode: 0
        weightedMode: 0
        inWeight: 0.33333334
        outWeight: 0.33333334
      - serializedVersion: 3
        time: 0.4166668
        value: 0.001747168
        inSlope: -0.00007646734
        outSlope: -0.00007646734
        tangentMode: 0
        weightedMode: 0
        inWeight: 0.33333334
        outWeight: 0.33333334
      - serializedVersion: 3
        time: 0.4333335
        value: 0.0017461705
        inSlope: -0.000046309975
        outSlope: -0.000046309975
        tangentMode: 0
        weightedMode: 0
        inWeight: 0.33333334
        outWeight: 0.33333334
      - serializedVersion: 3
        time: 0.45000017
        value: 0.0017456244
        inSlope: -0.00002332961
        outSlope: -0.00002332961
        tangentMode: 0
        weightedMode: 0
        inWeight: 0.33333334
        outWeight: 0.33333334
      - serializedVersion: 3
        time: 0.46666685
        value: 0.0017453928
        inSlope: -0.000008748604
        outSlope: -0.000008748604
        tangentMode: 0
        weightedMode: 0
        inWeight: 0.33333334
        outWeight: 0.33333334
      - serializedVersion: 3
        time: 0.48333353
        value: 0.0017453327
        inSlope: -0.0000019348226
        outSlope: -0.0000019348226
        tangentMode: 0
        weightedMode: 0
        inWeight: 0.33333334
        outWeight: 0.33333334
      - serializedVersion: 3
        time: 0.5
        value: 0.0017453283
        inSlope: -0.00000026543003
        outSlope: -0.00000026543003
        tangentMode: 0
        weightedMode: 0
        inWeight: 0.33333334
        outWeight: 0.33333334
      m_PreInfinity: 2
      m_PostInfinity: 2
      m_RotationOrder: 4
    attribute: m_LocalRotation.y
    path: 
    classID: 4
    script: {fileID: 0}
  - curve:
      serializedVersion: 2
      m_Curve:
      - serializedVersion: 3
        time: 0
        value: 0
        inSlope: -0.0040027113
        outSlope: -0.0040027113
        tangentMode: 0
        weightedMode: 0
        inWeight: 0.33333334
        outWeight: 0.33333334
      - serializedVersion: 3
        time: 0.016666668
        value: -0.00006671186
        inSlope: -0.007633553
        outSlope: -0.007633553
        tangentMode: 0
        weightedMode: 0
        inWeight: 0.33333334
        outWeight: 0.33333334
      - serializedVersion: 3
        time: 0.033333335
        value: -0.0002544518
        inSlope: -0.014337892
        outSlope: -0.014337892
        tangentMode: 0
        weightedMode: 0
        inWeight: 0.33333334
        outWeight: 0.33333334
      - serializedVersion: 3
        time: 0.050000004
        value: -0.00054464163
        inSlope: -0.019927796
        outSlope: -0.019927796
        tangentMode: 0
        weightedMode: 0
        inWeight: 0.33333334
        outWeight: 0.33333334
      - serializedVersion: 3
        time: 0.06666667
        value: -0.0009187117
        inSlope: -0.024403475
        outSlope: -0.024403475
        tangentMode: 0
        weightedMode: 0
        inWeight: 0.33333334
        outWeight: 0.33333334
      - serializedVersion: 3
        time: 0.083333336
        value: -0.0013580908
        inSlope: -0.027764522
        outSlope: -0.027764522
        tangentMode: 0
        weightedMode: 0
        inWeight: 0.33333334
        outWeight: 0.33333334
      - serializedVersion: 3
        time: 0.1
        value: -0.0018441958
        inSlope: -0.030010005
        outSlope: -0.030010005
        tangentMode: 0
        weightedMode: 0
        inWeight: 0.33333334
        outWeight: 0.33333334
      - serializedVersion: 3
        time: 0.11666667
        value: -0.0023584242
        inSlope: -0.0311387
        outSlope: -0.0311387
        tangentMode: 0
        weightedMode: 0
        inWeight: 0.33333334
        outWeight: 0.33333334
      - serializedVersion: 3
        time: 0.13333334
        value: -0.0028821526
        inSlope: -0.031149153
        outSlope: -0.031149153
        tangentMode: 0
        weightedMode: 0
        inWeight: 0.33333334
        outWeight: 0.33333334
      - serializedVersion: 3
        time: 0.15
        value: -0.0033967295
        inSlope: -0.030039877
        outSlope: -0.030039877
        tangentMode: 0
        weightedMode: 0
        inWeight: 0.33333334
        outWeight: 0.33333334
      - serializedVersion: 3
        time: 0.16666667
        value: -0.0038834817
        inSlope: -0.027809493
        outSlope: -0.027809493
        tangentMode: 0
        weightedMode: 0
        inWeight: 0.33333334
        outWeight: 0.33333334
      - serializedVersion: 3
        time: 0.18333334
        value: -0.0043237126
        inSlope: -0.024456754
        outSlope: -0.024456754
        tangentMode: 0
        weightedMode: 0
        inWeight: 0.33333334
        outWeight: 0.33333334
      - serializedVersion: 3
        time: 0.2
        value: -0.004698707
        inSlope: -0.019980852
        outSlope: -0.019980852
        tangentMode: 0
        weightedMode: 0
        inWeight: 0.33333334
        outWeight: 0.33333334
      - serializedVersion: 3
        time: 0.21666667
        value: -0.004989741
        inSlope: -0.014381364
        outSlope: -0.014381364
        tangentMode: 0
        weightedMode: 0
        inWeight: 0.33333334
        outWeight: 0.33333334
      - serializedVersion: 3
        time: 0.23333333
        value: -0.0051780855
        inSlope: -0.007658434
        outSlope: -0.007658434
        tangentMode: 0
        weightedMode: 0
        inWeight: 0.33333334
        outWeight: 0.33333334
      - serializedVersion: 3
        time: 0.25
        value: -0.005245022
        inSlope: -0.0000034105033
        outSlope: -0.0000034105033
        tangentMode: 0
        weightedMode: 0
        inWeight: 0.33333334
        outWeight: 0.33333334
      - serializedVersion: 3
        time: 0.26666668
        value: -0.005178199
        inSlope: 0.007645798
        outSlope: 0.007645798
        tangentMode: 0
        weightedMode: 0
        inWeight: 0.33333334
        outWeight: 0.33333334
      - serializedVersion: 3
        time: 0.28333336
        value: -0.004990162
        inSlope: 0.014359278
        outSlope: 0.014359278
        tangentMode: 0
        weightedMode: 0
        inWeight: 0.33333334
        outWeight: 0.33333334
      - serializedVersion: 3
        time: 0.30000004
        value: -0.004699556
        inSlope: 0.019953929
        outSlope: 0.019953929
        tangentMode: 0
        weightedMode: 0
        inWeight: 0.33333334
        outWeight: 0.33333334
      - serializedVersion: 3
        time: 0.31666672
        value: -0.0043250304
        inSlope: 0.024429714
        outSlope: 0.024429714
        tangentMode: 0
        weightedMode: 0
        inWeight: 0.33333334
        outWeight: 0.33333334
      - serializedVersion: 3
        time: 0.3333334
        value: -0.0038852317
        inSlope: 0.02778665
        outSlope: 0.02778665
        tangentMode: 0
        weightedMode: 0
        inWeight: 0.33333334
        outWeight: 0.33333334
      - serializedVersion: 3
        time: 0.35000008
        value: -0.003398808
        inSlope: 0.030024707
        outSlope: 0.030024707
        tangentMode: 0
        weightedMode: 0
        inWeight: 0.33333334
        outWeight: 0.33333334
      - serializedVersion: 3
        time: 0.36666676
        value: -0.0028844073
        inSlope: 0.031143814
        outSlope: 0.031143814
        tangentMode: 0
        weightedMode: 0
        inWeight: 0.33333334
        outWeight: 0.33333334
      - serializedVersion: 3
        time: 0.38333344
        value: -0.00236068
        inSlope: 0.031143978
        outSlope: 0.031143978
        tangentMode: 0
        weightedMode: 0
        inWeight: 0.33333334
        outWeight: 0.33333334
      - serializedVersion: 3
        time: 0.40000013
        value: -0.0018462738
        inSlope: 0.030025167
        outSlope: 0.030025167
        tangentMode: 0
        weightedMode: 0
        inWeight: 0.33333334
        outWeight: 0.33333334
      - serializedVersion: 3
        time: 0.4166668
        value: -0.0013598402
        inSlope: 0.027787335
        outSlope: 0.027787335
        tangentMode: 0
        weightedMode: 0
        inWeight: 0.33333334
        outWeight: 0.33333334
      - serializedVersion: 3
        time: 0.4333335
        value: -0.00092002854
        inSlope: 0.024430532
        outSlope: 0.024430532
        tangentMode: 0
        weightedMode: 0
        inWeight: 0.33333334
        outWeight: 0.33333334
      - serializedVersion: 3
        time: 0.45000017
        value: -0.00054548844
        inSlope: 0.019954704
        outSlope: 0.019954704
        tangentMode: 0
        weightedMode: 0
        inWeight: 0.33333334
        outWeight: 0.33333334
      - serializedVersion: 3
        time: 0.46666685
        value: -0.00025487124
        inSlope: 0.014359895
        outSlope: 0.014359895
        tangentMode: 0
        weightedMode: 0
        inWeight: 0.33333334
        outWeight: 0.33333334
      - serializedVersion: 3
        time: 0.48333353
        value: -0.00006682487
        inSlope: 0.0076461555
        outSlope: 0.0076461555
        tangentMode: 0
        weightedMode: 0
        inWeight: 0.33333334
        outWeight: 0.33333334
      - serializedVersion: 3
        time: 0.5
        value: 0
        inSlope: 0.004009539
        outSlope: 0.004009539
        tangentMode: 0
        weightedMode: 0
        inWeight: 0.33333334
        outWeight: 0.33333334
      m_PreInfinity: 2
      m_PostInfinity: 2
      m_RotationOrder: 4
    attribute: m_LocalRotation.z
    path: 
    classID: 4
    script: {fileID: 0}
  - curve:
      serializedVersion: 2
      m_Curve:
      - serializedVersion: 3
        time: 0
        value: 1
        inSlope: 0
        outSlope: 0
        tangentMode: 0
        weightedMode: 0
        inWeight: 0.33333334
        outWeight: 0.33333334
      - serializedVersion: 3
        time: 0.016666668
        value: 1
        inSlope: -0.0000035762785
        outSlope: -0.0000035762785
        tangentMode: 0
        weightedMode: 0
        inWeight: 0.33333334
        outWeight: 0.33333334
      - serializedVersion: 3
        time: 0.033333335
        value: 0.9999999
        inSlope: -0.0000071525565
        outSlope: -0.0000071525565
        tangentMode: 0
        weightedMode: 0
        inWeight: 0.33333334
        outWeight: 0.33333334
      - serializedVersion: 3
        time: 0.050000004
        value: 0.99999976
        inSlope: -0.000023245813
        outSlope: -0.000023245813
        tangentMode: 0
        weightedMode: 0
        inWeight: 0.33333334
        outWeight: 0.33333334
      - serializedVersion: 3
        time: 0.06666667
        value: 0.9999991
        inSlope: -0.000050067905
        outSlope: -0.000050067905
        tangentMode: 0
        weightedMode: 0
        inWeight: 0.33333334
        outWeight: 0.33333334
      - serializedVersion: 3
        time: 0.083333336
        value: 0.9999981
        inSlope: -0.00007867814
        outSlope: -0.00007867814
        tangentMode: 0
        weightedMode: 0
        inWeight: 0.33333334
        outWeight: 0.33333334
      - serializedVersion: 3
        time: 0.1
        value: 0.9999965
        inSlope: -0.00011980535
        outSlope: -0.00011980535
        tangentMode: 0
        weightedMode: 0
        inWeight: 0.33333334
        outWeight: 0.33333334
      - serializedVersion: 3
        time: 0.11666667
        value: 0.9999941
        inSlope: -0.00015914437
        outSlope: -0.00015914437
        tangentMode: 0
        weightedMode: 0
        inWeight: 0.33333334
        outWeight: 0.33333334
      - serializedVersion: 3
        time: 0.13333334
        value: 0.9999912
        inSlope: -0.00018954274
        outSlope: -0.00018954274
        tangentMode: 0
        weightedMode: 0
        inWeight: 0.33333334
        outWeight: 0.33333334
      - serializedVersion: 3
        time: 0.15
        value: 0.9999878
        inSlope: -0.00021100046
        outSlope: -0.00021100046
        tangentMode: 0
        weightedMode: 0
        inWeight: 0.33333334
        outWeight: 0.33333334
      - serializedVersion: 3
        time: 0.16666667
        value: 0.99998415
        inSlope: -0.0002217293
        outSlope: -0.0002217293
        tangentMode: 0
        weightedMode: 0
        inWeight: 0.33333334
        outWeight: 0.33333334
      - serializedVersion: 3
        time: 0.18333334
        value: 0.9999804
        inSlope: -0.00022530557
        outSlope: -0.00022530557
        tangentMode: 0
        weightedMode: 0
        inWeight: 0.33333334
        outWeight: 0.33333334
      - serializedVersion: 3
        time: 0.2
        value: 0.99997663
        inSlope: -0.00019848348
        outSlope: -0.00019848348
        tangentMode: 0
        weightedMode: 0
        inWeight: 0.33333334
        outWeight: 0.33333334
      - serializedVersion: 3
        time: 0.21666667
        value: 0.9999738
        inSlope: -0.00014662744
        outSlope: -0.00014662744
        tangentMode: 0
        weightedMode: 0
        inWeight: 0.33333334
        outWeight: 0.33333334
      - serializedVersion: 3
        time: 0.23333333
        value: 0.99997175
        inSlope: -0.00008404256
        outSlope: -0.00008404256
        tangentMode: 0
        weightedMode: 0
        inWeight: 0.33333334
        outWeight: 0.33333334
      - serializedVersion: 3
        time: 0.25
        value: 0.999971
        inSlope: -0.0000017881594
        outSlope: -0.0000017881594
        tangentMode: 0
        weightedMode: 0
        inWeight: 0.33333334
        outWeight: 0.33333334
      - serializedVersion: 3
        time: 0.26666668
        value: 0.9999717
        inSlope: 0.000078678066
        outSlope: 0.000078678066
        tangentMode: 0
        weightedMode: 0
        inWeight: 0.33333334
        outWeight: 0.33333334
      - serializedVersion: 3
        time: 0.28333336
        value: 0.9999736
        inSlope: 0.00013947475
        outSlope: 0.00013947475
        tangentMode: 0
        weightedMode: 0
        inWeight: 0.33333334
        outWeight: 0.33333334
      - serializedVersion: 3
        time: 0.30000004
        value: 0.99997634
        inSlope: 0.00018596635
        outSlope: 0.00018596635
        tangentMode: 0
        weightedMode: 0
        inWeight: 0.33333334
        outWeight: 0.33333334
      - serializedVersion: 3
        time: 0.31666672
        value: 0.9999798
        inSlope: 0.0002127884
        outSlope: 0.0002127884
        tangentMode: 0
        weightedMode: 0
        inWeight: 0.33333334
        outWeight: 0.33333334
      - serializedVersion: 3
        time: 0.3333334
        value: 0.99998343
        inSlope: 0.0002127884
        outSlope: 0.0002127884
        tangentMode: 0
        weightedMode: 0
        inWeight: 0.33333334
        outWeight: 0.33333334
      - serializedVersion: 3
        time: 0.35000008
        value: 0.9999869
        inSlope: 0.00020027143
        outSlope: 0.00020027143
        tangentMode: 0
        weightedMode: 0
        inWeight: 0.33333334
        outWeight: 0.33333334
      - serializedVersion: 3
        time: 0.36666676
        value: 0.9999901
        inSlope: 0.00017881379
        outSlope: 0.00017881379
        tangentMode: 0
        weightedMode: 0
        inWeight: 0.33333334
        outWeight: 0.33333334
      - serializedVersion: 3
        time: 0.38333344
        value: 0.99999285
        inSlope: 0.00015020359
        outSlope: 0.00015020359
        tangentMode: 0
        weightedMode: 0
        inWeight: 0.33333334
        outWeight: 0.33333334
      - serializedVersion: 3
        time: 0.40000013
        value: 0.9999951
        inSlope: 0.000114440816
        outSlope: 0.000114440816
        tangentMode: 0
        weightedMode: 0
        inWeight: 0.33333334
        outWeight: 0.33333334
      - serializedVersion: 3
        time: 0.4166668
        value: 0.99999666
        inSlope: 0.00007510179
        outSlope: 0.00007510179
        tangentMode: 0
        weightedMode: 0
        inWeight: 0.33333334
        outWeight: 0.33333334
      - serializedVersion: 3
        time: 0.4333335
        value: 0.9999976
        inSlope: 0.000046491587
        outSlope: 0.000046491587
        tangentMode: 0
        weightedMode: 0
        inWeight: 0.33333334
        outWeight: 0.33333334
      - serializedVersion: 3
        time: 0.45000017
        value: 0.9999982
        inSlope: 0.000021457654
        outSlope: 0.000021457654
        tangentMode: 0
        weightedMode: 0
        inWeight: 0.33333334
        outWeight: 0.33333334
      - serializedVersion: 3
        time: 0.46666685
        value: 0.99999833
        inSlope: 0.0000071525515
        outSlope: 0.0000071525515
        tangentMode: 0
        weightedMode: 0
        inWeight: 0.33333334
        outWeight: 0.33333334
      - serializedVersion: 3
        time: 0.48333353
        value: 0.99999845
        inSlope: 0.0000035762757
        outSlope: 0.0000035762757
        tangentMode: 0
        weightedMode: 0
        inWeight: 0.33333334
        outWeight: 0.33333334
      - serializedVersion: 3
        time: 0.5
        value: 0.99999845
        inSlope: 0
        outSlope: 0
        tangentMode: 0
        weightedMode: 0
        inWeight: 0.33333334
        outWeight: 0.33333334
      m_PreInfinity: 2
      m_PostInfinity: 2
      m_RotationOrder: 4
    attribute: m_LocalRotation.w
    path: 
    classID: 4
    script: {fileID: 0}
  m_EulerEditorCurves:
  - curve:
      serializedVersion: 2
      m_Curve:
      - serializedVersion: 3
        time: 0
        value: 0
        inSlope: 0
        outSlope: 0
        tangentMode: 136
        weightedMode: 0
        inWeight: 0.33333334
        outWeight: 0.33333334
      - serializedVersion: 3
        time: 0.25
        value: 0.6
        inSlope: 0
        outSlope: 0
        tangentMode: 136
        weightedMode: 0
        inWeight: 0.33333334
        outWeight: 0.33333334
      - serializedVersion: 3
        time: 0.5
        value: 0
        inSlope: 0
        outSlope: 0
        tangentMode: 136
        weightedMode: 0
        inWeight: 0.33333334
        outWeight: 0.33333334
      m_PreInfinity: 2
      m_PostInfinity: 2
      m_RotationOrder: 4
    attribute: localEulerAnglesBaked.x
    path: 
    classID: 4
    script: {fileID: 0}
  - curve:
      serializedVersion: 2
      m_Curve:
      - serializedVersion: 3
        time: 0
        value: 0
        inSlope: 0
        outSlope: 0
        tangentMode: 136
        weightedMode: 0
        inWeight: 0.33333334
        outWeight: 0.33333334
      - serializedVersion: 3
        time: 0.25
        value: 0.2
        inSlope: 0
        outSlope: 0
        tangentMode: 136
        weightedMode: 0
        inWeight: 0.33333334
        outWeight: 0.33333334
      m_PreInfinity: 2
      m_PostInfinity: 2
      m_RotationOrder: 4
    attribute: localEulerAnglesBaked.y
    path: 
    classID: 4
    script: {fileID: 0}
  - curve:
      serializedVersion: 2
      m_Curve:
      - serializedVersion: 3
        time: 0
        value: 0
        inSlope: 0
        outSlope: 0
        tangentMode: 136
        weightedMode: 0
        inWeight: 0.33333334
        outWeight: 0.33333334
      - serializedVersion: 3
        time: 0.25
        value: -0.6
        inSlope: 0
        outSlope: 0
        tangentMode: 136
        weightedMode: 0
        inWeight: 0.33333334
        outWeight: 0.33333334
      - serializedVersion: 3
        time: 0.5
        value: 0
        inSlope: 0
        outSlope: 0
        tangentMode: 136
        weightedMode: 0
        inWeight: 0.33333334
        outWeight: 0.33333334
      m_PreInfinity: 2
      m_PostInfinity: 2
      m_RotationOrder: 4
    attribute: localEulerAnglesBaked.z
    path: 
    classID: 4
    script: {fileID: 0}
  m_HasGenericRootTransform: 1
  m_HasMotionFloatCurves: 0
  m_Events:
  - time: 0
    functionName: PlayFootstep
    data: 
    objectReferenceParameter: {fileID: 0}
    floatParameter: 0
    intParameter: 1
    messageOptions: 0
