%YAML 1.1
%TAG !u! tag:unity3d.com,2011:
--- !u!1001 &4632114585999126861
PrefabInstance:
  m_ObjectHideFlags: 0
  serializedVersion: 2
  m_Modification:
    m_TransformParent: {fileID: 0}
    m_Modifications:
    - target: {fileID: 36384923462161474, guid: 9750d2eb4af9c904db74797a3c751853,
        type: 3}
      propertyPath: track
      value: 1
      objectReference: {fileID: 0}
    - target: {fileID: 36384923462161475, guid: 9750d2eb4af9c904db74797a3c751853,
        type: 3}
      propertyPath: m_LocalPosition.x
      value: -438.55704
      objectReference: {fileID: 0}
    - target: {fileID: 36384923462161475, guid: 9750d2eb4af9c904db74797a3c751853,
        type: 3}
      propertyPath: m_LocalPosition.y
      value: 2.3748538
      objectReference: {fileID: 0}
    - target: {fileID: 36384923462161475, guid: 9750d2eb4af9c904db74797a3c751853,
        type: 3}
      propertyPath: m_LocalPosition.z
      value: -1.9577308
      objectReference: {fileID: 0}
    - target: {fileID: 36384923462161475, guid: 9750d2eb4af9c904db74797a3c751853,
        type: 3}
      propertyPath: m_LocalRotation.x
      value: 0
      objectReference: {fileID: 0}
    - target: {fileID: 36384923462161475, guid: 9750d2eb4af9c904db74797a3c751853,
        type: 3}
      propertyPath: m_LocalRotation.y
      value: 0
      objectReference: {fileID: 0}
    - target: {fileID: 36384923462161475, guid: 9750d2eb4af9c904db74797a3c751853,
        type: 3}
      propertyPath: m_LocalRotation.z
      value: 0
      objectReference: {fileID: 0}
    - target: {fileID: 36384923462161475, guid: 9750d2eb4af9c904db74797a3c751853,
        type: 3}
      propertyPath: m_LocalRotation.w
      value: 1
      objectReference: {fileID: 0}
    - target: {fileID: 36384923462161475, guid: 9750d2eb4af9c904db74797a3c751853,
        type: 3}
      propertyPath: m_RootOrder
      value: 0
      objectReference: {fileID: 0}
    - target: {fileID: 36384923462161475, guid: 9750d2eb4af9c904db74797a3c751853,
        type: 3}
      propertyPath: m_LocalEulerAnglesHint.x
      value: 0
      objectReference: {fileID: 0}
    - target: {fileID: 36384923462161475, guid: 9750d2eb4af9c904db74797a3c751853,
        type: 3}
      propertyPath: m_LocalEulerAnglesHint.y
      value: 0
      objectReference: {fileID: 0}
    - target: {fileID: 36384923462161475, guid: 9750d2eb4af9c904db74797a3c751853,
        type: 3}
      propertyPath: m_LocalEulerAnglesHint.z
      value: 0
      objectReference: {fileID: 0}
    - target: {fileID: 36384923462161484, guid: 9750d2eb4af9c904db74797a3c751853,
        type: 3}
      propertyPath: m_Name
      value: HubManager
      objectReference: {fileID: 0}
    - target: {fileID: 36384923462161484, guid: 9750d2eb4af9c904db74797a3c751853,
        type: 3}
      propertyPath: m_TagString
      value: HubManager
      objectReference: {fileID: 0}
    m_RemovedComponents: []
  m_SourcePrefab: {fileID: 100100000, guid: 9750d2eb4af9c904db74797a3c751853, type: 3}
